{
  "users": [{
    "id": 1,
    "type": "human",
    "attributes": {
      "name": "Homer Simpson"
    },
    "relationships": [1,2,3,4,5,6,7]
  },
  {
    "id": 2,
    "type": "human",
    "attributes": {
      "name": "Marge Simpson"
    },
    "relationships": [1,2,3,4,5,6,7]
  },
  {
    "id": 3,
    "type": "human",
    "attributes": {
      "name": "Bart Simpson"
    },
    "relationships": [2,5]
  },
  {
    "id": 4,
    "type": "human",
    "attributes": {
      "name": "Maggie Simpson"
    },
    "relationships": [3,6]
  },
  {
    "id": 5,
    "type": "human",
    "attributes": {
      "name": "Lisa Simpson"
    },
    "relationships": [4,7]
  }],
  "relationships": [{
    "id": 1,
    "type": "spouse_relation",
    "parent": 1,
    "child": 2,
    "attributes": {}
  },
  {
    "id": 2,
    "type": "child_relation",
    "parent": 1,
    "child": 3,
    "attributes": {}
  },
  {
    "id": 3,
    "type": "child_relation",
    "parent": 1,
    "child": 4,
    "attributes": {}
  },
  {
    "id": 4,
    "type": "child_relation",
    "parent": 1,
    "child": 5,
    "attributes": {}
  },
  {
    "id": 5,
    "type": "child_relation",
    "parent": 2,
    "child": 3,
    "attributes": {}
  },
  {
    "id": 6,
    "type": "child_relation",
    "parent": 2,
    "child": 4,
    "attributes": {}
  },
  {
    "id": 7,
    "type": "child_relation",
    "parent": 2,
    "child": 5,
    "attributes": {}
  }]
}